%YAML 1.1
%TAG !u! tag:unity3d.com,2011:
--- !u!1 &1264833946912854
GameObject:
  m_ObjectHideFlags: 0
  m_CorrespondingSourceObject: {fileID: 0}
  m_PrefabInstance: {fileID: 0}
  m_PrefabAsset: {fileID: 0}
  serializedVersion: 6
  m_Component:
  - component: {fileID: 4288335847994348}
  - component: {fileID: 20724644957976244}
  - component: {fileID: 81419976148993170}
  - component: {fileID: 124044488792268592}
  m_Layer: 0
  m_Name: Player Camera
  m_TagString: MainCamera
  m_Icon: {fileID: 0}
  m_NavMeshLayer: 0
  m_StaticEditorFlags: 0
  m_IsActive: 1
--- !u!4 &4288335847994348
Transform:
  m_ObjectHideFlags: 0
  m_CorrespondingSourceObject: {fileID: 0}
  m_PrefabInstance: {fileID: 0}
  m_PrefabAsset: {fileID: 0}
  m_GameObject: {fileID: 1264833946912854}
  m_LocalRotation: {x: -0, y: -0, z: -0, w: 1}
  m_LocalPosition: {x: 0, y: 0.9000001, z: 0}
  m_LocalScale: {x: 1, y: 1, z: 1}
  m_Children: []
  m_Father: {fileID: 4448068258976056}
  m_RootOrder: 0
  m_LocalEulerAnglesHint: {x: 0, y: 0, z: 0}
--- !u!20 &20724644957976244
Camera:
  m_ObjectHideFlags: 0
  m_CorrespondingSourceObject: {fileID: 0}
  m_PrefabInstance: {fileID: 0}
  m_PrefabAsset: {fileID: 0}
  m_GameObject: {fileID: 1264833946912854}
  m_Enabled: 1
  serializedVersion: 2
  m_ClearFlags: 1
  m_BackGroundColor: {r: 0.19215687, g: 0.3019608, b: 0.4745098, a: 0.019607844}
  m_projectionMatrixMode: 1
  m_GateFitMode: 2
  m_FOVAxisMode: 0
  m_SensorSize: {x: 36, y: 24}
  m_LensShift: {x: 0, y: 0}
  m_FocalLength: 50
  m_NormalizedViewPortRect:
    serializedVersion: 2
    x: 0
    y: 0
    width: 1
    height: 1
  near clip plane: 0.01
  far clip plane: 1000
  field of view: 60
  orthographic: 0
  orthographic size: 5
  m_Depth: 0
  m_CullingMask:
    serializedVersion: 2
    m_Bits: 4294967295
  m_RenderingPath: 3
  m_TargetTexture: {fileID: 0}
  m_TargetDisplay: 0
  m_TargetEye: 3
  m_HDR: 1
  m_AllowMSAA: 0
  m_AllowDynamicResolution: 0
  m_ForceIntoRT: 1
  m_OcclusionCulling: 1
  m_StereoConvergence: 10
  m_StereoSeparation: 0.022
--- !u!81 &81419976148993170
AudioListener:
  m_ObjectHideFlags: 0
  m_CorrespondingSourceObject: {fileID: 0}
  m_PrefabInstance: {fileID: 0}
  m_PrefabAsset: {fileID: 0}
  m_GameObject: {fileID: 1264833946912854}
  m_Enabled: 1
--- !u!124 &124044488792268592
Behaviour:
  m_ObjectHideFlags: 0
  m_CorrespondingSourceObject: {fileID: 0}
  m_PrefabInstance: {fileID: 0}
  m_PrefabAsset: {fileID: 0}
  m_GameObject: {fileID: 1264833946912854}
  m_Enabled: 1
--- !u!1 &1743903104223250
GameObject:
  m_ObjectHideFlags: 0
  m_CorrespondingSourceObject: {fileID: 0}
  m_PrefabInstance: {fileID: 0}
  m_PrefabAsset: {fileID: 0}
  serializedVersion: 6
  m_Component:
  - component: {fileID: 4448068258976056}
  - component: {fileID: 82712217391461128}
  - component: {fileID: 54587624234064098}
  - component: {fileID: 136239539305442568}
  - component: {fileID: 114051214696948948}
  m_Layer: 0
  m_Name: FirstPerson-AIO
  m_TagString: Player
  m_Icon: {fileID: 0}
  m_NavMeshLayer: 0
  m_StaticEditorFlags: 0
  m_IsActive: 1
--- !u!4 &4448068258976056
Transform:
  m_ObjectHideFlags: 0
  m_CorrespondingSourceObject: {fileID: 0}
  m_PrefabInstance: {fileID: 0}
  m_PrefabAsset: {fileID: 0}
  m_GameObject: {fileID: 1743903104223250}
  m_LocalRotation: {x: -0, y: -1, z: 0, w: -0.0000001872535}
  m_LocalPosition: {x: 0, y: 1.3, z: 0}
  m_LocalScale: {x: 1, y: 1, z: 1}
  m_Children:
  - {fileID: 4288335847994348}
  m_Father: {fileID: 0}
  m_RootOrder: 0
  m_LocalEulerAnglesHint: {x: 0, y: -180.00002, z: 0}
--- !u!82 &82712217391461128
AudioSource:
  m_ObjectHideFlags: 0
  m_CorrespondingSourceObject: {fileID: 0}
  m_PrefabInstance: {fileID: 0}
  m_PrefabAsset: {fileID: 0}
  m_GameObject: {fileID: 1743903104223250}
  m_Enabled: 1
  serializedVersion: 4
  OutputAudioMixerGroup: {fileID: 0}
  m_audioClip: {fileID: 0}
  m_PlayOnAwake: 1
  m_Volume: 1
  m_Pitch: 1
  Loop: 0
  Mute: 0
  Spatialize: 0
  SpatializePostEffects: 0
  Priority: 128
  DopplerLevel: 1
  MinDistance: 1
  MaxDistance: 500
  Pan2D: 0
  rolloffMode: 0
  BypassEffects: 0
  BypassListenerEffects: 0
  BypassReverbZones: 0
  rolloffCustomCurve:
    serializedVersion: 2
    m_Curve:
    - serializedVersion: 3
      time: 0
      value: 1
      inSlope: 0
      outSlope: 0
      tangentMode: 0
      weightedMode: 0
      inWeight: 0.33333334
      outWeight: 0.33333334
    - serializedVersion: 3
      time: 1
      value: 0
      inSlope: 0
      outSlope: 0
      tangentMode: 0
      weightedMode: 0
      inWeight: 0.33333334
      outWeight: 0.33333334
    m_PreInfinity: 2
    m_PostInfinity: 2
    m_RotationOrder: 4
  panLevelCustomCurve:
    serializedVersion: 2
    m_Curve:
    - serializedVersion: 3
      time: 0
      value: 0
      inSlope: 0
      outSlope: 0
      tangentMode: 0
      weightedMode: 0
      inWeight: 0.33333334
      outWeight: 0.33333334
    m_PreInfinity: 2
    m_PostInfinity: 2
    m_RotationOrder: 0
  spreadCustomCurve:
    serializedVersion: 2
    m_Curve:
    - serializedVersion: 3
      time: 0
      value: 0
      inSlope: 0
      outSlope: 0
      tangentMode: 0
      weightedMode: 0
      inWeight: 0.33333334
      outWeight: 0.33333334
    m_PreInfinity: 2
    m_PostInfinity: 2
    m_RotationOrder: 0
  reverbZoneMixCustomCurve:
    serializedVersion: 2
    m_Curve:
    - serializedVersion: 3
      time: 0
      value: 1
      inSlope: 0
      outSlope: 0
      tangentMode: 0
      weightedMode: 0
      inWeight: 0.33333334
      outWeight: 0.33333334
    m_PreInfinity: 2
    m_PostInfinity: 2
    m_RotationOrder: 0
--- !u!54 &54587624234064098
Rigidbody:
  m_ObjectHideFlags: 0
  m_CorrespondingSourceObject: {fileID: 0}
  m_PrefabInstance: {fileID: 0}
  m_PrefabAsset: {fileID: 0}
  m_GameObject: {fileID: 1743903104223250}
  serializedVersion: 2
  m_Mass: 1
  m_Drag: 0
  m_AngularDrag: 0.05
  m_UseGravity: 1
  m_IsKinematic: 0
  m_Interpolate: 2
  m_Constraints: 112
  m_CollisionDetection: 1
--- !u!136 &136239539305442568
CapsuleCollider:
  m_ObjectHideFlags: 0
  m_CorrespondingSourceObject: {fileID: 0}
  m_PrefabInstance: {fileID: 0}
  m_PrefabAsset: {fileID: 0}
  m_GameObject: {fileID: 1743903104223250}
  m_Material: {fileID: 0}
  m_IsTrigger: 0
  m_Enabled: 1
  m_Radius: 0.4
  m_Height: 2
  m_Direction: 1
  m_Center: {x: 0, y: 0, z: 0}
--- !u!114 &114051214696948948
MonoBehaviour:
  m_ObjectHideFlags: 0
  m_CorrespondingSourceObject: {fileID: 0}
  m_PrefabInstance: {fileID: 0}
  m_PrefabAsset: {fileID: 0}
  m_GameObject: {fileID: 1743903104223250}
  m_Enabled: 1
  m_EditorHideFlags: 0
  m_Script: {fileID: 11500000, guid: bf1a5ad4f9ffb154ca7813fdad11017a, type: 3}
  m_Name: 
  m_EditorClassIdentifier: 
  controllerPauseState: 0
  enableCameraMovement: 1
  mouseInputInversion: 0
  cameraInputMethod: 0
  verticalRotationRange: 170
  mouseSensitivity: 10
  fOVToMouseSensitivity: 1
  cameraSmoothing: 5
  lockAndHideCursor: 1
  playerCamera: {fileID: 20724644957976244}
  enableCameraShake: 1
  autoCrosshair: 1
  drawStaminaMeter: 1
  Crosshair: {fileID: 21300000, guid: 7fa7752f7f2a3fc4fbc2bcaea5671e2d, type: 3}
  targetAngles: {x: 0, y: 0, z: 0}
  playerCanMove: 1
  walkByDefault: 1
  walkSpeed: 4
  sprintKey: 304
  sprintSpeed: 8
  jumpPower: 5
  canJump: 1
  canHoldJump: 0
  useStamina: 1
  staminaDepletionSpeed: 2
  staminaLevel: 50
  speed: 0
  staminaInternal: 0
  _crouchModifiers:
    useCrouch: 1
    toggleCrouch: 0
    crouchKey: 306
    crouchWalkSpeedMultiplier: 0.5
    crouchJumpPowerMultiplier: 0
    crouchOverride: 0
  advanced:
    gravityMultiplier: 1
    zeroFrictionMaterial: {fileID: 0}
    highFrictionMaterial: {fileID: 0}
    maxSlopeAngle: 70
    maxWallShear: 89
    maxStepHeight: 0.2
    curntGroundNormal: {x: 0, y: 0, z: 0}
    moveDirRef: {x: 0, y: 0}
    lastKnownSlopeAngle: 0
    FOVKickAmount: 2.5
    changeTime: 0.75
    fovRef: 0
  isCrouching: 0
  fps_Rigidbody: {fileID: 0}
  useHeadbob: 1
  head: {fileID: 0}
  snapHeadjointToCapsul: 1
  headbobFrequency: 1.5
  headbobSwayAngle: 2.5
  headbobHeight: 1
  headbobSideMovement: 0.5
  jumpLandIntensity: 3
  enableAudioSFX: 1
  Volume: 5
  jumpSound: {fileID: 0}
  landSound: {fileID: 0}
  footStepSounds:
  - {fileID: 0}
  - {fileID: 0}
  - {fileID: 0}
  fsmode: 1
  dynamicFootstep:
    materialMode: 0
    woodPhysMat: []
    metalAndGlassPhysMat: []
    grassPhysMat: []
    dirtAndGravelPhysMat: []
    rockAndConcretePhysMat: []
    mudPhysMat: []
    customPhysMat: []
    woodMat: []
    metalAndGlassMat: []
    grassMat: []
    dirtAndGravelMat: []
    rockAndConcreteMat: []
    mudMat: []
    customMat: []
    currentClipSet: []
    woodClipSet: []
    metalAndGlassClipSet: []
    grassClipSet:
    - {fileID: 8300000, guid: e70c5fa5ed6b97f41aa555d63ca56d42, type: 3}
    - {fileID: 8300000, guid: d3947cf2c6783a447bd0dae10cd8bb21, type: 3}
    - {fileID: 8300000, guid: 41b975e693999f942b5755a8f054c4ce, type: 3}
    - {fileID: 8300000, guid: 818617f6fe74a6345a5babff80a756e2, type: 3}
    - {fileID: 8300000, guid: 2667de89ddda8dc409eaf8f8261d1d8c, type: 3}
    - {fileID: 8300000, guid: 76909016e12b7b4469602526ddc6a164, type: 3}
    - {fileID: 8300000, guid: 0533ad72641beb64c84742701ea7fcd4, type: 3}
    - {fileID: 8300000, guid: 37aa905a30faf0d45a213f924449a6fb, type: 3}
    - {fileID: 8300000, guid: 5991900ee6498594ab6d0c668e329eb1, type: 3}
    - {fileID: 8300000, guid: e899671e45e608e4db37f6d6701c35ba, type: 3}
    - {fileID: 8300000, guid: 01c377cd295d33a4db93c9467d59a6dd, type: 3}
    dirtAndGravelClipSet: []
    rockAndConcreteClipSet:
    - {fileID: 8300000, guid: a9e804a8165699a49bceb84d083a34a6, type: 3}
    - {fileID: 8300000, guid: fead5cfe6593ab64dac60ff7b677fb86, type: 3}
    - {fileID: 8300000, guid: b129e694a0fa16f498b497481befe169, type: 3}
    - {fileID: 8300000, guid: a3eb761c67da86e4d95a714d5040e215, type: 3}
    - {fileID: 8300000, guid: 49a4a47af61a25b4fb37c589359ef09c, type: 3}
    - {fileID: 8300000, guid: ffeb60b812fdc464499d8bd1c46cd055, type: 3}
    - {fileID: 8300000, guid: 7b10d52be5966cc49b99c126a03640e5, type: 3}
    - {fileID: 8300000, guid: fbe1939915c91b74f9eded7665492ef6, type: 3}
    - {fileID: 8300000, guid: e2f81d653f70254468486696deb5e2d7, type: 3}
    - {fileID: 8300000, guid: e38fa940edefdd9479e226e6a3d4787e, type: 3}
    - {fileID: 8300000, guid: 965861ab37dcd9549912eca505055b63, type: 3}
    mudClipSet: []
    customClipSet:
    - {fileID: 8300000, guid: fb6839219f2c6674996d76c7d9626311, type: 3}
    - {fileID: 8300000, guid: a2cf935dcad44514894bf910c443d507, type: 3}
    - {fileID: 8300000, guid: 0b36ebf0a6b6c234c89643b5bb83ec59, type: 3}
    - {fileID: 8300000, guid: f556827165c098547be10e15323aa490, type: 3}
    - {fileID: 8300000, guid: 5a1e73ebb16d027419df7efded694efa, type: 3}
    - {fileID: 8300000, guid: 884f1d42e7a5e98478d53bfc4b98aada, type: 3}
    - {fileID: 8300000, guid: 8bbd5871530ec774ebef27eaea21e860, type: 3}
    - {fileID: 8300000, guid: 8742d0ca3e03b034fb383ae7aba7d4a6, type: 3}
    - {fileID: 8300000, guid: fef61cddf814a2c49bf7a6c33791c766, type: 3}
    - {fileID: 8300000, guid: 73f938638097f8042ad7842aa5b04ac5, type: 3}
    - {fileID: 8300000, guid: e06c6ae1948cafd45a952ab85ebe4fa7, type: 3}
